
hi!

hi!6

hi2!

hi!6

hi! hi!9

hi! hi! 

hi! hi!9

hi! hi!6
data: 154 368640
cufftPlan1d ok

hi! hi!6
data: 154 368640
cufftPlan1d ok

hi! hi!6
data: 154 368640
cufftPlan1d ok

hi! hi!6
data: 154 368640
cufftPlan1d ok

hi! hi!6
data: 154 368640
cufftPlan1d ok

hi! hi!6
data: 154 368640
cufftPlan1d ok

hi! hi!6
data: 154 368640
cufftPlan1d ok

hi! hi!6
data: 154 368640
cufftPlan1d ok

hi! hi!6
data: 154 368640
cufftPlan1d ok

hi! hi!6
data: 154 368640
cufftPlan1d ok

hi! hi!6
data: 154 368640
cufftPlan1d ok

hi! hi!6
data: 154 368640
cufftPlan1d ok

hi! hi!6
data: 154 368640
cufftPlan1d ok

hi! hi!6
data: 154 368640
cufftPlan1d ok

hi! hi!6
data: 154 368640
cufftPlan1d ok

hi! hi!6
data: 154 368640
cufftPlan1d ok

hi! hi!6
data: 154 368640
cufftPlan1d ok

hi! hi!6
data: 154 368640
cufftPlan1d ok

hi! hi!6
data: 154 368640
cufftPlan1d ok

hi! hi!6
data: 154 368640
cufftPlan1d ok

hi! hi!6
data: 154 368640
cufftPlan1d ok

hi! hi!6
data: 154 368640
cufftPlan1d ok

hi! hi!6
data: 154 368640
cufftPlan1d ok

hi! hi!6
data: 154 368640
cufftPlan1d ok

hi! hi!6
data: 154 368640
cufftPlan1d ok

hi! hi!6
data: 154 368640
cufftPlan1d ok

hi! hi!6
data: 154 368640
cufftPlan1d ok

hi! hi!6
data: 154 368640
cufftPlan1d ok

hi! hi!6
data: 154 368640
cufftPlan1d ok

hi! hi!6
data: 154 368640
cufftPlan1d ok

hi! hi!6
data: 154 368640
cufftPlan1d ok

hi! hi!6
data: 154 368640
cufftPlan1d ok

hi! hi!6
data: 154 368640
cufftPlan1d ok

hi! hi!6
data: 154 368640
cufftPlan1d ok

hi! hi!6
data: 154 368640
cufftPlan1d ok

hi! hi!6
data: 154 368640
cufftPlan1d ok

hi! hi!6
data: 154 368640
cufftPlan1d ok

hi! hi!6
data: 154 368640
cufftPlan1d ok

hi! hi!6
data: 154 368640
cufftPlan1d ok

hi! hi!6
data: 154 368640
cufftPlan1d ok

hi! hi!6
data: 154 368640
cufftPlan1d ok

hi! hi!6
data: 154 368640
cufftPlan1d ok

hi! hi!6
data: 154 368640
cufftPlan1d ok

hi! hi!6
data: 154 368640
cufftPlan1d ok

hi! hi!6
data: 154 368640
cufftPlan1d ok

hi! hi!6
data: 154 368640
cufftPlan1d ok

hi! hi!6
data: 154 368640
cufftPlan1d ok

hi! hi!6
data: 154 368640
cufftPlan1d ok

hi! hi!6
data: 154 368640
cufftPlan1d ok

hi! hi!6
data: 154 368640
cufftPlan1d ok

hi! hi!6
data: 154 368640
cufftPlan1d ok

hi! hi!6
data: 154 368640
cufftPlan1d ok

hi! hi!6
data: 154 368640
cufftPlan1d ok

hi! hi!6
data: 154 368640
cufftPlan1d ok

hi! hi!6
data: 154 368640
cufftPlan1d ok

hi! hi!6
data: 154 368640
cufftPlan1d ok

hi! hi!6
data: 154 368640
cufftPlan1d ok

hi! hi!6
data: 154 368640
cufftPlan1d ok

hi! hi!6
data: 154 368640
cufftPlan1d ok

hi! hi!6
data: 154 368640
cufftPlan1d ok

hi! hi!6
data: 154 368640
cufftPlan1d ok

hi! hi!6
data: 154 368640
cufftPlan1d ok

hi! hi!6
data: 154 368640
cufftPlan1d ok

hi! hi!6
data: 154 368640
cufftPlan1d ok

hi! hi!6
data: 154 368640
cufftPlan1d ok

hi! hi!6
data: 154 368640
cufftPlan1d ok

Bye! Bye!
