nvcc -MM -MT build/qf_port.o -c -g -G -m64 -std=c++11 -I.  -I..//include -I..//ports/posix-qv -DQP_API_VERSION=9999 ..//ports/posix-qv/qf_port.c > build/qf_port.d
nvcc -MM -MT build/qf_time.o -c -g -G -m64 -std=c++11 -I.  -I..//include -I..//ports/posix-qv -DQP_API_VERSION=9999 ..//src/qf/qf_time.c > build/qf_time.d
nvcc -MM -MT build/qf_qmact.o -c -g -G -m64 -std=c++11 -I.  -I..//include -I..//ports/posix-qv -DQP_API_VERSION=9999 ..//src/qf/qf_qmact.c > build/qf_qmact.d
nvcc -MM -MT build/qf_qeq.o -c -g -G -m64 -std=c++11 -I.  -I..//include -I..//ports/posix-qv -DQP_API_VERSION=9999 ..//src/qf/qf_qeq.c > build/qf_qeq.d
nvcc -MM -MT build/qf_qact.o -c -g -G -m64 -std=c++11 -I.  -I..//include -I..//ports/posix-qv -DQP_API_VERSION=9999 ..//src/qf/qf_qact.c > build/qf_qact.d
nvcc -MM -MT build/qf_ps.o -c -g -G -m64 -std=c++11 -I.  -I..//include -I..//ports/posix-qv -DQP_API_VERSION=9999 ..//src/qf/qf_ps.c > build/qf_ps.d
nvcc -MM -MT build/qf_mem.o -c -g -G -m64 -std=c++11 -I.  -I..//include -I..//ports/posix-qv -DQP_API_VERSION=9999 ..//src/qf/qf_mem.c > build/qf_mem.d
nvcc -MM -MT build/qf_dyn.o -c -g -G -m64 -std=c++11 -I.  -I..//include -I..//ports/posix-qv -DQP_API_VERSION=9999 ..//src/qf/qf_dyn.c > build/qf_dyn.d
nvcc -MM -MT build/qf_defer.o -c -g -G -m64 -std=c++11 -I.  -I..//include -I..//ports/posix-qv -DQP_API_VERSION=9999 ..//src/qf/qf_defer.c > build/qf_defer.d
nvcc -MM -MT build/qf_actq.o -c -g -G -m64 -std=c++11 -I.  -I..//include -I..//ports/posix-qv -DQP_API_VERSION=9999 ..//src/qf/qf_actq.c > build/qf_actq.d
nvcc -MM -MT build/qf_act.o -c -g -G -m64 -std=c++11 -I.  -I..//include -I..//ports/posix-qv -DQP_API_VERSION=9999 ..//src/qf/qf_act.c > build/qf_act.d
nvcc -MM -MT build/qep_msm.o -c -g -G -m64 -std=c++11 -I.  -I..//include -I..//ports/posix-qv -DQP_API_VERSION=9999 ..//src/qf/qep_msm.c > build/qep_msm.d
nvcc -MM -MT build/qep_hsm.o -c -g -G -m64 -std=c++11 -I.  -I..//include -I..//ports/posix-qv -DQP_API_VERSION=9999 ..//src/qf/qep_hsm.c > build/qep_hsm.d
nvcc -MM -MT build/ru_input.o -c -g -G -m64 -std=c++11 -I.  -I..//include -I..//ports/posix-qv -DQP_API_VERSION=9999 ru_input.c > build/ru_input.d
nvcc -MM -MT build/bsp.o -c -g -G -m64 -std=c++11 -I.  -I..//include -I..//ports/posix-qv -DQP_API_VERSION=9999 bsp.c > build/bsp.d
nvcc -MM -MT build/main.o -c -g -G -m64 -std=c++11 -I.  -I..//include -I..//ports/posix-qv -DQP_API_VERSION=9999 main.c > build/main.d
nvcc -c -g -G -m64 -std=c++11 -I.  -I..//include -I..//ports/posix-qv -DQP_API_VERSION=9999 ..//include/qstamp.c -o build/qstamp.o
nvcc  -o build/ru build/main.o build/bsp.o build/ru_input.o build/qep_hsm.o build/qep_msm.o build/qf_act.o build/qf_actq.o build/qf_defer.o build/qf_dyn.o build/qf_mem.o build/qf_ps.o build/qf_qact.o build/qf_qeq.o build/qf_qmact.o build/qf_time.o build/qf_port.o build/qstamp.o -lpthread -lrt -lcufft
